2;2;Zestaw z żarówką:select:1;Tak:0;;;;;;;20;0;100;1;0;;;0;2022-01-01;;;First alt text,Second alt text;;0;0;;
2;2;Zestaw z żarówką:select:1;Nie:0;;;;;;;0;0;100;1;0;;;0;2022-01-01;;;First alt text,Second alt text;;0;0;;
3;3;Zestaw z żarówką:select:1;Tak:0;;;;;;;20;0;100;1;0;;;0;2022-01-01;;;First alt text,Second alt text;;0;0;;
3;3;Zestaw z żarówką:select:1;Nie:0;;;;;;;0;0;100;1;0;;;0;2022-01-01;;;First alt text,Second alt text;;0;0;;
4;4;Zestaw z żarówką:select:1;Tak:0;;;;;;;20;0;100;1;0;;;0;2022-01-01;;;First alt text,Second alt text;;0;0;;
4;4;Zestaw z żarówką:select:1;Nie:0;;;;;;;0;0;100;1;0;;;0;2022-01-01;;;First alt text,Second alt text;;0;0;;
